EDI_PRCHG_20200723
TableName	Actflag	Created	Changed	PrchgID	SecID	ISIN	EffectiveDate	EventType	OldExchgCD	NewExchgCD	Notes
PRCHG	I	2020/07/23	2020/07/23	336142	6445706	CH0536892828	2020/07/21	CORR	CHBND		
PRCHG	I	2020/07/23	2020/07/23	336143	6445706	CH0536892828	2020/07/22	CORR		CHSSX	
PRCHG	I	2020/07/23	2020/07/23	336144	6427207	US9127964R78	2020/06/09	CORR	USBND		
PRCHG	I	2020/07/23	2020/07/23	336145	6427207	US9127964R78	2020/06/10	CORR		USTRCE	
PRCHG	I	2020/07/23	2020/07/23	336146	6485935	XS2210044009	2020/07/22	CORR	XSBND		
PRCHG	I	2020/07/23	2020/07/23	336147	6485935	XS2210044009	2020/07/23	CORR		LULSE	
PRCHG	I	2020/07/23	2020/07/23	336150	6099485	KR310502G999	2020/07/21	CORR	KRBND		
PRCHG	I	2020/07/23	2020/07/23	336151	6099485	KR310502G999	2020/07/22	CORR		KRKSE	
PRCHG	I	2020/07/23	2020/07/23	336152	6048057	KR310203G986	2020/07/21	CORR	KRBND		
PRCHG	I	2020/07/23	2020/07/23	336153	6048057	KR310203G986	2020/07/22	CORR		KRKSE	
PRCHG	I	2020/07/23	2020/07/23	336157	6422322	XS2165894168	2020/07/22	CORR	XSBND		
PRCHG	I	2020/07/23	2020/07/23	336158	6422322	XS2165894168	2020/07/23	CORR		IEISE	
PRCHG	I	2020/07/23	2020/07/23	336159	6487616	FR0013525045	2020/07/21	CORR	FRBND		
PRCHG	I	2020/07/23	2020/07/23	336160	6487616	FR0013525045	2020/07/22	CORR		FRPEN	
PRCHG	I	2020/07/23	2020/07/23	336162	6486547	US52603BAC19	2020/07/21	CORR	USBND		
PRCHG	I	2020/07/23	2020/07/23	336163	6486547	US52603BAC19	2020/07/22	CORR		USTRCE	
PRCHG	I	2020/07/23	2020/07/23	336164	6478519	FR0013523198	2020/07/17	CORR	FRBND	LULSE	
PRCHG	I	2020/07/23	2020/07/23	336165	6469942	FRSG00011A52	2020/07/10	CORR	FRBND	LULSE	
PRCHG	I	2020/07/23	2020/07/23	336166	6481265	XS2019757439	2020/07/15	CORR	XSBND		
PRCHG	I	2020/07/23	2020/07/23	336167	6481265	XS2019757439	2020/07/16	CORR		LULSE	
PRCHG	I	2020/07/23	2020/07/23	336168	6397155	XS2077787021	2020/05/08	CORR	XSBND		
PRCHG	I	2020/07/23	2020/07/23	336169	6397155	XS2077787021	2020/05/09	CORR		LULSE	
PRCHG	I	2020/07/23	2020/07/23	336170	6376451	XS2087070517	2020/03/30	CORR	XSBND		
PRCHG	I	2020/07/23	2020/07/23	336171	6376451	XS2087070517	2020/03/31	CORR		LULSE	
PRCHG	I	2020/07/23	2020/07/23	336172	6452013	XS2120781666	2020/07/20	CORR	XSBND		
PRCHG	I	2020/07/23	2020/07/23	336173	6452013	XS2120781666	2020/07/21	CORR		LULSE	
PRCHG	I	2020/07/23	2020/07/23	336174	6449274	XS2120791467	2020/07/20	CORR	XSBND		
PRCHG	I	2020/07/23	2020/07/23	336175	6449274	XS2120791467	2020/07/21	CORR		LULSE	
PRCHG	I	2020/07/23	2020/07/23	336176	6469525	XS2144381279	2020/07/21	CORR	XSBND		
PRCHG	I	2020/07/23	2020/07/23	336177	6469525	XS2144381279	2020/07/22	CORR		LULSE	
PRCHG	I	2020/07/23	2020/07/23	336178	6483246	XS2148822567	2020/07/21	CORR	XSBND		
PRCHG	I	2020/07/23	2020/07/23	336179	6483246	XS2148822567	2020/07/22	CORR		LULSE	
PRCHG	I	2020/07/23	2020/07/23	336180	6484954	XS2177260697	2020/07/20	CORR	XSBND		
PRCHG	I	2020/07/23	2020/07/23	336181	6484954	XS2177260697	2020/07/21	CORR		LULSE	
PRCHG	I	2020/07/23	2020/07/23	336182	6472673	XS2194382227	2020/07/21	CORR	XSBND		
PRCHG	I	2020/07/23	2020/07/23	336183	6472673	XS2194382227	2020/07/22	CORR		LULSE	
PRCHG	I	2020/07/23	2020/07/23	336184	6479973	XS2194424672	2020/07/21	CORR	XSBND		
PRCHG	I	2020/07/23	2020/07/23	336185	6479973	XS2194424672	2020/07/22	CORR		LULSE	
PRCHG	I	2020/07/23	2020/07/23	336186	6485398	INE484J14KJ2	2020/07/22	CORR	INBND	INNSE	
PRCHG	I	2020/07/23	2020/07/23	336187	6485395	INE729N14FA1	2020/07/22	CORR	INBND	INNSE	
PRCHG	I	2020/07/23	2020/07/23	336188	6486922	INE601U14FF6	2020/07/22	CORR	INBND	INNSE	
PRCHG	I	2020/07/23	2020/07/23	336189	6486914	INE242A14RE9	2020/07/22	CORR	INBND	INNSE	
PRCHG	I	2020/07/23	2020/07/23	336190	6486916	INE047A14693	2020/07/22	CORR	INBND	INBSE	
PRCHG	I	2020/07/23	2020/07/23	336191	6485385	IN002020Z162	2020/07/22	CORR	INRBI	INNSE	
PRCHG	I	2020/07/23	2020/07/23	336192	6485384	IN002020Y165	2020/07/22	CORR	INRBI	INNSE	
PRCHG	I	2020/07/23	2020/07/23	336193	6485383	IN002020X183	2020/07/22	CORR	INRBI	INNSE	
PRCHG	I	2020/07/23	2020/07/23	336194	6485390	IN2220200116	2020/07/22	CORR	INRBI	INNSE	
PRCHG	I	2020/07/23	2020/07/23	336195	6486915	INE018A14HV8	2020/07/22	CORR	INBND	INBSE	
PRCHG	I	2020/07/23	2020/07/23	336196	6485392	IN3120200230	2020/07/22	CORR	INRBI	INNSE	
PRCHG	I	2020/07/23	2020/07/23	336197	6485391	IN3120200222	2020/07/22	CORR	INRBI	INNSE	
PRCHG	I	2020/07/23	2020/07/23	336198	6485387	IN2020200159	2020/07/22	CORR	INRBI	INNSE	
PRCHG	I	2020/07/23	2020/07/23	336199	6485386	IN1320200018	2020/07/22	CORR	INRBI	INNSE	
PRCHG	I	2020/07/23	2020/07/23	336200	6485389	IN1920200095	2020/07/22	CORR	INRBI	INNSE	
PRCHG	I	2020/07/23	2020/07/23	336201	6486923	INE508G14923	2020/07/22	CORR	INBND	INBSE	
PRCHG	I	2020/07/23	2020/07/23	336202	6485396	INE208A14CG7	2020/07/22	CORR	INBND	INNSE	
PRCHG	I	2020/07/23	2020/07/23	336203	6485399	INE144H14DO1	2020/07/22	CORR	INBND	INNSE	
PRCHG	I	2020/07/23	2020/07/23	336204	6486917	INE414G14PF2	2020/07/22	CORR	INBND	INBSE	
PRCHG	I	2020/07/23	2020/07/23	336205	6486921	INE414G14PE5	2020/07/22	CORR	INBND	INBSE	
PRCHG	I	2020/07/23	2020/07/23	336206	6480790	INE178A08029	2020/07/17	CORR	INBND	INBSE	
PRCHG	I	2020/07/23	2020/07/23	336207	6483129	INE420C07015	2020/07/16	CORR	INBND	INBSE	
PRCHG	I	2020/07/23	2020/07/23	336208	6469576	INE414G07EW5	2020/07/09	CORR	INBND	INBSE	
PRCHG	I	2020/07/23	2020/07/23	336211	5866336	LI0392176116	2018/01/01	CORR	DESSE	LIBND	
PRCHG	I	2020/07/23	2020/07/23	336212	5866336	LI0392176116	2018/01/02	CORR	LIBND	DESSE	
PRCHG	I	2020/07/23	2020/07/23	336213	6467588	XS2177383267	2020/07/20	CORR	XSBND		
PRCHG	I	2020/07/23	2020/07/23	336214	6467588	XS2177383267	2020/07/21	CORR		IEISE	
PRCHG	I	2020/07/23	2020/07/23	336215	6469153	XS2197355881	2020/07/20	CORR	XSBND		
PRCHG	I	2020/07/23	2020/07/23	336216	6469153	XS2197355881	2020/07/21	CORR		IEISE	
PRCHG	I	2020/07/23	2020/07/23	336217	6294386	IS0000031300	2019/07/04	CORR	ISBND		
PRCHG	I	2020/07/23	2020/07/23	336218	6294386	IS0000031300	2019/07/05	CORR		ISISE	
PRCHG	I	2020/07/23	2020/07/23	336219	6484460	USG05126AA81	2020/07/20	CORR	USBND		
PRCHG	I	2020/07/23	2020/07/23	336220	6484460	USG05126AA81	2020/07/21	CORR		IEISE	
PRCHG	I	2020/07/23	2020/07/23	336221	4261262	XS1063512443	2020/07/20	CORR	IEISE	XSBND	
PRCHG	I	2020/07/23	2020/07/23	336222	4263158	XS1063509225	2020/07/20	CORR	IEISE	XSBND	
PRCHG	I	2020/07/23	2020/07/23	336223	4666813	XS1335409204	2019/12/24	CORR	IEISE	XSBND	
PRCHG	I	2020/07/23	2020/07/23	336224	6473669	XS2198570801	2020/07/20	CORR	XSBND		
PRCHG	I	2020/07/23	2020/07/23	336225	6473669	XS2198570801	2020/07/21	CORR		IEISE	
PRCHG	I	2020/07/23	2020/07/23	336226	6486919	INE628A14ED9	2020/07/23	CORR	INBND	INNSE	
PRCHG	I	2020/07/23	2020/07/23	336227	6488905	INE704I14DO0	2020/07/23	CORR	INBND	INNSE	
PRCHG	I	2020/07/23	2020/07/23	336228	6486920	INE208A14CH5	2020/07/23	CORR	INBND	INNSE	
PRCHG	I	2020/07/23	2020/07/23	336229	6038934	XS2035199319	2020/07/21	CORR	IEISE	XSBND	
PRCHG	I	2020/07/23	2020/07/23	336230	5842443	XS1936055083	2020/07/21	CORR	IEISE	XSBND	
PRCHG	I	2020/07/23	2020/07/23	336231	6477291	XS2198986650	2020/07/21	CORR	XSBND		
PRCHG	I	2020/07/23	2020/07/23	336232	6477291	XS2198986650	2020/07/22	CORR		IEISE	
PRCHG	I	2020/07/23	2020/07/23	336233	6477299	XS2198988193	2020/07/21	CORR	XSBND		
PRCHG	I	2020/07/23	2020/07/23	336234	6477299	XS2198988193	2020/07/22	CORR		IEISE	
PRCHG	I	2020/07/23	2020/07/23	336235	6486503	DE000A2E4DG1	2020/07/22	CORR	DEBND		
PRCHG	I	2020/07/23	2020/07/23	336236	6486503	DE000A2E4DG1	2020/07/23	CORR		DEFSX	
PRCHG	I	2020/07/23	2020/07/23	336237	6488207	DE000HLB2VW1	2020/07/22	CORR	DEBND		
PRCHG	I	2020/07/23	2020/07/23	336238	6488207	DE000HLB2VW1	2020/07/23	CORR		DEMSE	
PRCHG	I	2020/07/23	2020/07/23	336239	6486079	DE000HLB2VT7	2020/07/22	CORR	DEBND		
PRCHG	I	2020/07/23	2020/07/23	336240	6486079	DE000HLB2VT7	2020/07/23	CORR		DEMSE	
PRCHG	I	2020/07/23	2020/07/23	336241	6487644	XS2207857421	2020/07/22	CORR	XSBND		
PRCHG	I	2020/07/23	2020/07/23	336242	6487644	XS2207857421	2020/07/23	CORR		DEMSE	
PRCHG	I	2020/07/23	2020/07/23	336243	6487666	LT0000650061	2020/07/22	CORR	LTBND		
PRCHG	I	2020/07/23	2020/07/23	336244	6487666	LT0000650061	2020/07/23	CORR		LTNSE	
PRCHG	I	2020/07/23	2020/07/23	336245	6486016	DE000A14JZM9	2020/07/22	CORR	DEBND		
PRCHG	I	2020/07/23	2020/07/23	336246	6486016	DE000A14JZM9	2020/07/23	CORR		DEMSE	
PRCHG	I	2020/07/23	2020/07/23	336248	6486485	XS2200701071	2020/07/21	CORR	XSBND		
PRCHG	I	2020/07/23	2020/07/23	336249	6486485	XS2200701071	2020/07/22	CORR		IEISE	
PRCHG	I	2020/07/23	2020/07/23	336250	5739031	TH6068031B04	2018/11/02	CORR	THBND		
PRCHG	I	2020/07/23	2020/07/23	336251	5739031	TH6068031B04	2018/11/03	CORR		THSET	
PRCHG	I	2020/07/23	2020/07/23	336252	6458808	XS2197941185	2020/07/21	CORR	XSBND		
PRCHG	I	2020/07/23	2020/07/23	336253	6458808	XS2197941185	2020/07/22	CORR		IEISE	
PRCHG	I	2020/07/23	2020/07/23	336254	6458800	XS2197941003	2020/07/21	CORR	XSBND		
PRCHG	I	2020/07/23	2020/07/23	336255	6458800	XS2197941003	2020/07/22	CORR		IEISE	
PRCHG	I	2020/07/23	2020/07/23	336256	5740374	TH6068032B03	2018/11/02	CORR	THBND		
PRCHG	I	2020/07/23	2020/07/23	336257	6457273	XS2197940963	2020/07/21	CORR	XSBND		
PRCHG	I	2020/07/23	2020/07/23	336258	5740374	TH6068032B03	2018/11/03	CORR		THSET	
PRCHG	I	2020/07/23	2020/07/23	336259	6457273	XS2197940963	2020/07/22	CORR		IEISE	
EDI_ENDOFFILE
