EDI_SP_20200723
TableName	Actflag	Created	Changed	SecID	ISIN	StructureName	Strategy	UnderlyingClassification	SettlementCurrency	ClassificationAgency	ClassificationCode	IssuerBrand	IssuerProductName	Feature1	Feature2	Feature3	Feature4	Feature5	Feature6	Feature7	ExpiryTimeZone	OfferOpenDate	OfferOpenTime	OfferCloseDate	OfferCloseTime	InitialFixingDate	InitialFixingTime	FinalFixingDate	FinalFixingTime	StrikeDate	FirstTradeDate	LastTradeDate	BondFloor	QuoteStyle	CapitalProtectionLevel	ConditionalCapitalProtection	ProtectionCushion	ParticipationFactor1	ParticipationType1	ParticipationFactor2	ParticipationType2	UnderlyingBasketCapLevel	TenureMaxYield	AnnualisedMaxYield	QuantoCurrency	Notes
SP	U	2020/07/23	2020/07/23	6488084	US22550MGQ69	Yield Enhancement Securities linked to Basket of Equities	YE	ELN	USD					RVC	AUT	KNI	CAP											2021/07/21			2020/07/21						50									
SP	I	2020/07/23	2020/07/23	6488166	US06367WY647	Yield Enhancement Securities linked to Equity	YE	ELN	USD					AUT	RVC	CCN	CAP	BAR	PAR							2020/07/17		2021/10/19									56	100	DOW							
SP	I	2020/07/23	2020/07/23	6488891	US06367WX573	Yield Enhancement Note linked to Equity	YE	ELN	USD					AUT	RVC	PAR	CAP	BAR	CCN							2020/07/17		2021/10/19									60	100	DOW							
EDI_ENDOFFILE
